39 Grouped operations | Advanced Environmental Data Management
…
n(): the number of observations in the current group

n_distinct(x): the number of unique values in x.

first(x), last(x) and nth(x, n) - these work similarly to x[1], x[length(x)], and x[n] but give you more control over the result if the value is missing.

For example, we could use these to find the number of planes and the number of flights that go to each possible destination:

destinations <- group_by(flights, dest)
summarise(destinations,
  planes = n_distinct(tailnum),
  flights = n()
)

## # A tibble: 105 × 3
##    dest  planes flights
##    <chr>  <int>   <int>
##  1 ABQ      108     254
##  2 ACK       58     265
##  3 ALB      172     439
##  4 ANC        6       8
##  5 ATL     1180   17215
##  6 AUS      993    2439
##  7 AVL      159     275
##  8 BDL      186     443
##  9 BGR       46     375
## 10 BHM       45     297
## # … with 95 more rows

You can also use any function that you write yourself. For performance, dplyr provides optimised C++ versions of many of these functions. If you want to provide your own C++ function, see the hybrid-evaluation vignette for more details.

When you group by multiple variables, each summary peels off one level of the grouping. That makes it easy to progressively roll-up a dataset:

daily <- group_by(flights, year, month, day)
(per_day   <- summarise(daily, flights = n()))

## `summarise()` has grouped output by 'year', 'month'. You can override using the `.groups` argument.

## # A tibble: 365 × 4
## # Groups:   year, month [12]
##     year month   day flights
##    <int> <int> <int>   <int>
##  1  2013     1     1     842
##  2  2013     1     2     943
##  3  2013     1     3     914
##  4  2013     1     4     915
##  5  2013     1     5     720
##  6  2013     1     6     832
##  7  2013     1     7     933
##  8  2013     1     8     899
##  9  2013     1     9     902
## 10  2013     1    10     932
## # … with 355 more rows
…
## Adding missing grouping variables: `year`, `month`, `day`

## `summarise()` has grouped output by 'year', 'month'. You can override using the `.groups` argument.

## # A tibble: 49 × 5
## # Groups:   year, month [11]
##     year month   day   arr   dep
##    <int> <int> <int> <dbl> <dbl>
##  1  2013     1    16  34.2  24.6
##  2  2013     1    31  32.6  28.7
##  3  2013     2    11  36.3  39.1
##  4  2013     2    27  31.3  37.8
##  5  2013     3     8  85.9  83.5
##  6  2013     3    18  41.3  30.1
##  7  2013     4    10  38.4  33.0
##  8  2013     4    12  36.0  34.8
##  9  2013     4    18  36.0  34.9
## 10  2013     4    19  47.9  46.1
## # … with 39 more rows
…
flights %>%
  group_by(year, month, day) %>%
  select(arr_delay, dep_delay) %>%
  summarise(
    arr = mean(arr_delay, na.rm = TRUE),
    dep = mean(dep_delay, na.rm = TRUE)
  ) %>%
  filter(arr > 30 | dep > 30)

## Adding missing grouping variables: `year`, `month`, `day`

## `summarise()` has grouped output by 'year', 'month'. You can override using the `.groups` argument.

## # A tibble: 49 × 5
## # Groups:   year, month [11]
##     year month   day   arr   dep
##    <int> <int> <int> <dbl> <dbl>
##  1  2013     1    16  34.2  24.6
##  2  2013     1    31  32.6  28.7
##  3  2013     2    11  36.3  39.1
##  4  2013     2    27  31.3  37.8
##  5  2013     3     8  85.9  83.5
##  6  2013     3    18  41.3  30.1
##  7  2013     4    10  38.4  33.0
##  8  2013     4    12  36.0  34.8
##  9  2013     4    18  36.0  34.9
## 10  2013     4    19  47.9  46.1
## # … with 39 more rows
…
