37 Introduction | Advanced Environmental Data Management
…
## Warning: `tbl_df()` was deprecated in dplyr 1.0.0.
## Please use `tibble::as_tibble()` instead.
## This warning is displayed once every 8 hours.
## Call `lifecycle::last_lifecycle_warnings()` to see where this warning was generated.

tbl_df is a wrapper around a data frame that won’t accidentally print a lot of data to the screen.

37.1 Filter

The filter function will return all the rows that satisfy a following condition. For example below will return all the rows where Temp is larger than 70.

filter(airquality, Temp > 70)

## # A tibble: 120 × 6
##    Ozone Solar.R  Wind  Temp Month   Day
##    <int>   <int> <dbl> <int> <int> <int>
##  1    36     118   8      72     5     2
##  2    12     149  12.6    74     5     3
##  3     7      NA   6.9    74     5    11
##  4    11     320  16.6    73     5    22
##  5    45     252  14.9    81     5    29
##  6   115     223   5.7    79     5    30
##  7    37     279   7.4    76     5    31
##  8    NA     286   8.6    78     6     1
##  9    NA     287   9.7    74     6     2
## 10    NA     186   9.2    84     6     4
## # … with 110 more rows

Another example of filter is to return all the rows where Temp is larger than 80 and Month is after May.

filter(airquality, Temp > 80 & Month > 5)

## # A tibble: 67 × 6
##    Ozone Solar.R  Wind  Temp Month   Day
##    <int>   <int> <dbl> <int> <int> <int>
##  1    NA     186   9.2    84     6     4
##  2    NA     220   8.6    85     6     5
##  3    29     127   9.7    82     6     7
##  4    NA     273   6.9    87     6     8
##  5    71     291  13.8    90     6     9
##  6    39     323  11.5    87     6    10
##  7    NA     259  10.9    93     6    11
##  8    NA     250   9.2    92     6    12
##  9    23     148   8      82     6    13
## 10    NA     138   8      83     6    30
## # … with 57 more rows

37.2 Mutate

mutate is used to add new variables to the data. For example lets adds a new column that displays the temperature in Celsius.

mutate(airquality, TempInC = (Temp - 32) * 5 / 9)

## # A tibble: 153 × 7
##    Ozone Solar.R  Wind  Temp Month   Day TempInC
##    <int>   <int> <dbl> <int> <int> <int>   <dbl>
##  1    41     190   7.4    67     5     1    19.4
##  2    36     118   8      72     5     2    22.2
##  3    12     149  12.6    74     5     3    23.3
##  4    18     313  11.5    62     5     4    16.7
##  5    NA      NA  14.3    56     5     5    13.3
##  6    28      NA  14.9    66     5     6    18.9
##  7    23     299   8.6    65     5     7    18.3
##  8    19      99  13.8    59     5     8    15  
##  9     8      19  20.1    61     5     9    16.1
## 10    NA     194   8.6    69     5    10    20.6
## # … with 143 more rows

We can also write our own function to make the transformation. This allows us to do more complicated data transformation.

FtoC <- function(x) (x-32)*5/9
mutate(airquality, TempInC=FtoC(Temp))

## # A tibble: 153 × 7
##    Ozone Solar.R  Wind  Temp Month   Day TempInC
##    <int>   <int> <dbl> <int> <int> <int>   <dbl>
##  1    41     190   7.4    67     5     1    19.4
##  2    36     118   8      72     5     2    22.2
##  3    12     149  12.6    74     5     3    23.3
##  4    18     313  11.5    62     5     4    16.7
##  5    NA      NA  14.3    56     5     5    13.3
##  6    28      NA  14.9    66     5     6    18.9
##  7    23     299   8.6    65     5     7    18.3
##  8    19      99  13.8    59     5     8    15  
##  9     8      19  20.1    61     5     9    16.1
## 10    NA     194   8.6    69     5    10    20.6
## # … with 143 more rows
…
This means that there are 31 rows with Month = 5, 30 rows with Month = 6, and so on.

37.7 Arrange

The arrange function is used to arrange rows by variables. Currently, the airquality dataset is arranged based on Month, and then Day. We can use the arrange function to arrange the rows in the descending order of Month, and then in the ascending order of Day.

arrange(airquality, desc(Month), Day)

## # A tibble: 153 × 6
##    Ozone Solar.R  Wind  Temp Month   Day
##    <int>   <int> <dbl> <int> <int> <int>
##  1    96     167   6.9    91     9     1
##  2    78     197   5.1    92     9     2
##  3    73     183   2.8    93     9     3
##  4    91     189   4.6    93     9     4
##  5    47      95   7.4    87     9     5
##  6    32      92  15.5    84     9     6
##  7    20     252  10.9    80     9     7
##  8    23     220  10.3    78     9     8
##  9    21     230  10.9    75     9     9
## 10    24     259   9.7    73     9    10
## # … with 143 more rows
…
